1_eda
…
1_eda

Exploratory Data Analysis

Imports

Load data

# A tibble: 121 × 22
   Site   pruning Sever…¹ year   sev1  sev2   sev3 sev23 tmean…² tmin_…³ tmax_…⁴
   <fct>  <fct>     <dbl> <fct> <dbl> <dbl>  <dbl> <dbl>   <dbl>   <dbl>   <dbl>
 1 Booker 2-cane   0.0874 2005   9.90 1.25  2.21   3.47     15.5    9.80    20.5
 2 Booker 4-cane   0.171  2005   9.90 1.65  2.30   3.95     15.5    9.80    20.5
 3 Booker 2-cane   0.0363 2006   5.14 0.234 0.281  0.515    17.2   11.5     22.3
 4 Booker 2-cane   0.0563 2008   6.72 0.750 0.523  1.27     17.8   11.7     23.1
 5 Booker 4-cane   0.0774 2008   6.72 1.57  1.25   2.82     17.8   11.7     23.1
 6 Booker 2-cane   0.145  2009   9.67 1.42  3.56   4.98     16.9   10.4     22.4
 7 Booker 4-cane   0.140  2009   9.67 1.68  3.63   5.32     16.9   10.4     22.4
 8 Booker 2-cane   0.0489 2010   3.63 0.848 0.0125 0.861    17.5   11.3     23.3
 9 Booker 4-cane   0.0307 2010   3.63 0.848 0.0125 0.861    17.5   11.3     23.3
10 Booker 2-cane   0.0324 2011   5.74 1.56  0.0782 1.64     17.6   12.1     22.5
# … with 111 more rows, 11 more variables: rh_sev1 <dbl>, wetness_sev1 <dbl>,
#   WD_sev1 <dbl>, rain_sev1 <dbl>, tmean_sev23 <dbl>, tmin_sev23 <dbl>,
#   tmax_sev23 <dbl>, rh_sev23 <dbl>, wetness_sev23 <dbl>, WD_sev23 <dbl>,
#   rain_sev23 <dbl>, and abbreviated variable names ¹​Severity, ²​tmean_sev1,
#   ³​tmin_sev1, ⁴​tmax_sev1
# ℹ Use `print(n = ...)` to see more rows, and `colnames()` to see all variable names
…
