2_feature_analysis
…
2_feature_analysis

Feature Analysis

Imports

# A tibble: 121 × 22
   Site   pruning Sever…¹ year   sev1  sev2   sev3 sev23 tmean…² tmin_…³ tmax_…⁴
   <fct>  <fct>     <dbl> <fct> <dbl> <dbl>  <dbl> <dbl>   <dbl>   <dbl>   <dbl>
 1 Booker 2-cane   0.0874 2005   9.90 1.25  2.21   3.47     15.5    9.80    20.5
 2 Booker 4-cane   0.171  2005   9.90 1.65  2.30   3.95     15.5    9.80    20.5
 3 Booker 2-cane   0.0363 2006   5.14 0.234 0.281  0.515    17.2   11.5     22.3
 4 Booker 2-cane   0.0563 2008   6.72 0.750 0.523  1.27     17.8   11.7     23.1
 5 Booker 4-cane   0.0774 2008   6.72 1.57  1.25   2.82     17.8   11.7     23.1
 6 Booker 2-cane   0.145  2009   9.67 1.42  3.56   4.98     16.9   10.4     22.4
 7 Booker 4-cane   0.140  2009   9.67 1.68  3.63   5.32     16.9   10.4     22.4
 8 Booker 2-cane   0.0489 2010   3.63 0.848 0.0125 0.861    17.5   11.3     23.3
 9 Booker 4-cane   0.0307 2010   3.63 0.848 0.0125 0.861    17.5   11.3     23.3
10 Booker 2-cane   0.0324 2011   5.74 1.56  0.0782 1.64     17.6   12.1     22.5
# … with 111 more rows, 11 more variables: rh_sev1 <dbl>, wetness_sev1 <dbl>,
#   WD_sev1 <dbl>, rain_sev1 <dbl>, tmean_sev23 <dbl>, tmin_sev23 <dbl>,
#   tmax_sev23 <dbl>, rh_sev23 <dbl>, wetness_sev23 <dbl>, WD_sev23 <dbl>,
#   rain_sev23 <dbl>, and abbreviated variable names ¹​Severity, ²​tmean_sev1,
#   ³​tmin_sev1, ⁴​tmax_sev1
# ℹ Use `print(n = ...)` to see more rows, and `colnames()` to see all variable names
…
Horseshoe Model

Running MCMC with 4 parallel chains, with 3 thread(s) per chain...

Chain 3 finished in 17.4 seconds.
Chain 1 finished in 17.7 seconds.
Chain 4 finished in 17.8 seconds.
Chain 2 finished in 21.9 seconds.

All 4 chains finished successfully.
Mean chain execution time: 18.7 seconds.
Total execution time: 22.0 seconds.

# A tibble: 21 × 5
   `0`           Estimate Est.Error     Q2.5   Q97.5
   <chr>            <dbl>     <dbl>    <dbl>   <dbl>
 1 zi_Intercept    3.26      0.471  -4.32    -2.44  
 2 Intercept       2.91      2.48   -7.59     2.83  
 3 phi_Intercept   2.29      0.165   1.96     2.61  
 4 sev3            0.417     0.195  -0.00587  0.757 
 5 sev23           0.0431    0.112  -0.0736   0.376 
 6 tmin_sev1       0.0321    0.0620 -0.0274   0.209 
 7 WD_sev23        0.0320    0.0703 -0.234    0.0462
 8 tmean_sev23     0.0206    0.0708 -0.0410   0.210 
 9 wetness_sev23   0.0205    0.0230 -0.0702   0.0130
10 rh_sev23        0.0160    0.0303 -0.105    0.0197
# … with 11 more rows
# ℹ Use `print(n = ...)` to see more rows
…
We’ll repeat the model above, but this time with the Year, Site, and Pruning factors included within a varying intercepts model. We can also benefit from partial pooling, as some of our factor levels contained very little data.

Running MCMC with 4 parallel chains, with 3 thread(s) per chain...

Chain 1 finished in 39.4 seconds.
Chain 2 finished in 47.5 seconds.
Chain 3 finished in 53.7 seconds.
Chain 4 finished in 55.2 seconds.

All 4 chains finished successfully.
Mean chain execution time: 49.0 seconds.
Total execution time: 55.3 seconds.

# A tibble: 23 × 5
   `0`           Estimate Est.Error    Q2.5      Q97.5
   <chr>            <dbl>     <dbl>   <dbl>      <dbl>
 1 phi_Intercept   3.40      0.191   3.01    3.76     
 2 zi_Intercept    3.26      0.472  -4.27   -2.44     
 3 Intercept       2.77      4.47   -5.68   11.6      
 4 sev23           0.619     0.192   0.0148  0.917    
 5 pruning4Mcane   0.150     0.164  -0.519   0.0213   
 6 rh_sev23        0.103     0.0582 -0.219   0.0000375
 7 pruning3Mcane   0.0693    0.280  -0.140   1.01     
 8 sev3            0.0610    0.192  -0.0983  0.739    
 9 WD_sev23        0.0307    0.0831 -0.290   0.0593   
10 tmax_sev1       0.0160    0.0676 -0.0870  0.208    
# … with 13 more rows
# ℹ Use `print(n = ...)` to see more rows
…
