3_sparse_beta_reg
…
3_sparse_beta_reg

Sparse Beta Regression

Imports

# A tibble: 121 × 22
   Site   pruning Sever…¹ year   sev1  sev2   sev3 sev23 tmean…² tmin_…³ tmax_…⁴
   <fct>  <fct>     <dbl> <fct> <dbl> <dbl>  <dbl> <dbl>   <dbl>   <dbl>   <dbl>
 1 Booker 2-cane   0.0874 2005   9.90 1.25  2.21   3.47     15.5    9.80    20.5
 2 Booker 4-cane   0.171  2005   9.90 1.65  2.30   3.95     15.5    9.80    20.5
 3 Booker 2-cane   0.0363 2006   5.14 0.234 0.281  0.515    17.2   11.5     22.3
 4 Booker 2-cane   0.0563 2008   6.72 0.750 0.523  1.27     17.8   11.7     23.1
 5 Booker 4-cane   0.0774 2008   6.72 1.57  1.25   2.82     17.8   11.7     23.1
 6 Booker 2-cane   0.145  2009   9.67 1.42  3.56   4.98     16.9   10.4     22.4
 7 Booker 4-cane   0.140  2009   9.67 1.68  3.63   5.32     16.9   10.4     22.4
 8 Booker 2-cane   0.0489 2010   3.63 0.848 0.0125 0.861    17.5   11.3     23.3
 9 Booker 4-cane   0.0307 2010   3.63 0.848 0.0125 0.861    17.5   11.3     23.3
10 Booker 2-cane   0.0324 2011   5.74 1.56  0.0782 1.64     17.6   12.1     22.5
# … with 111 more rows, 11 more variables: rh_sev1 <dbl>, wetness_sev1 <dbl>,
#   WD_sev1 <dbl>, rain_sev1 <dbl>, tmean_sev23 <dbl>, tmin_sev23 <dbl>,
#   tmax_sev23 <dbl>, rh_sev23 <dbl>, wetness_sev23 <dbl>, WD_sev23 <dbl>,
#   rain_sev23 <dbl>, and abbreviated variable names ¹​Severity, ²​tmean_sev1,
#   ³​tmin_sev1, ⁴​tmax_sev1
# ℹ Use `print(n = ...)` to see more rows, and `colnames()` to see all variable names
…
Varying Intercepts

Running MCMC with 4 parallel chains, with 3 thread(s) per chain...

Chain 4 finished in 166.8 seconds.
Chain 1 finished in 174.8 seconds.
Chain 3 finished in 182.4 seconds.
Chain 2 finished in 225.6 seconds.

All 4 chains finished successfully.
Mean chain execution time: 187.4 seconds.
Total execution time: 225.7 seconds.

# A tibble: 23 × 5
   `0`           Estimate Est.Error     Q2.5     Q97.5
   <chr>            <dbl>     <dbl>    <dbl>     <dbl>
 1 phi_Intercept   3.40      0.190   3.01     3.76    
 2 zi_Intercept    3.26      0.479  -4.27    -2.41    
 3 Intercept       2.84      4.49   -5.47    11.8     
 4 sev23           0.619     0.190   0.00908  0.909   
 5 pruning4Mcane   0.142     0.163  -0.511    0.0219  
 6 rh_sev23        0.105     0.0580 -0.218    0.000285
 7 pruning3Mcane   0.0690    0.275  -0.144    0.964   
 8 sev3            0.0630    0.196  -0.0982   0.778   
 9 WD_sev23        0.0287    0.0802 -0.262    0.0668  
10 tmax_sev1       0.0155    0.0669 -0.0789   0.203   
# … with 13 more rows
# ℹ Use `print(n = ...)` to see more rows
…
Varying Slopes

Running MCMC with 4 parallel chains, with 3 thread(s) per chain...

Chain 4 finished in 184.0 seconds.
Chain 1 finished in 186.7 seconds.
Chain 2 finished in 288.4 seconds.
Chain 3 finished in 293.2 seconds.

All 4 chains finished successfully.
Mean chain execution time: 238.1 seconds.
Total execution time: 293.3 seconds.

# A tibble: 23 × 5
   `0`           Estimate Est.Error    Q2.5    Q97.5
   <chr>            <dbl>     <dbl>   <dbl>    <dbl>
 1 phi_Intercept   3.95      0.198   3.55    4.33   
 2 zi_Intercept    3.26      0.480  -4.31   -2.41   
 3 Intercept       1.40      4.69   -5.18   11.9    
 4 sev23           0.306     0.327  -0.0252  0.959  
 5 pruning4Mcane   0.158     0.166  -0.502   0.0146 
 6 sev2            0.104     0.231  -0.0638  0.822  
 7 rh_sev23        0.0542    0.0543 -0.170   0.00868
 8 tmin_sev1       0.0377    0.0979 -0.350   0.0522 
 9 tmax_sev23      0.0201    0.0596 -0.192   0.0482 
10 pruning3Mcane   0.0181    0.169  -0.165   0.358  
# … with 13 more rows
# ℹ Use `print(n = ...)` to see more rows
…
Phi and Zi

Running MCMC with 4 parallel chains, with 3 thread(s) per chain...

Chain 3 finished in 357.1 seconds.
Chain 1 finished in 357.2 seconds.
Chain 4 finished in 361.4 seconds.
Chain 2 finished in 365.3 seconds.

All 4 chains finished successfully.
Mean chain execution time: 360.2 seconds.
Total execution time: 365.3 seconds.

# A tibble: 25 × 5
   `0`           Estimate Est.Error    Q2.5    Q97.5
   <chr>            <dbl>     <dbl>   <dbl>    <dbl>
 1 phi_Intercept   3.79      0.337   3.12    4.43   
 2 Intercept       2.82      5.17   -5.00   13.8    
 3 zi_Intercept    2.41      0.903  -4.23   -0.670  
 4 zi_sev23        0.446     0.412  -1.37    0.232  
 5 sev23           0.374     0.351  -0.0269  1.02   
 6 pruning4Mcane   0.190     0.161  -0.501   0.0105 
 7 sev2            0.134     0.263  -0.0663  0.891  
 8 phi_sev23       0.0909    0.150  -0.202   0.382  
 9 rh_sev23        0.0756    0.0627 -0.198   0.00607
10 tmin_sev1       0.0476    0.112  -0.387   0.0560 
# … with 15 more rows
# ℹ Use `print(n = ...)` to see more rows
…
Finally, we’ll throw in a 2-component Beta mixture model.

Running MCMC with 4 parallel chains, with 3 thread(s) per chain...

Chain 1 finished in 186.8 seconds.
Chain 3 finished in 220.6 seconds.
Chain 2 finished in 242.7 seconds.
Chain 4 finished in 260.1 seconds.

All 4 chains finished successfully.
Mean chain execution time: 227.5 seconds.
Total execution time: 260.2 seconds.

# A tibble: 48 × 5
   `0`               Estimate Est.Error      Q2.5    Q97.5
   <chr>                <dbl>     <dbl>     <dbl>    <dbl>
 1 mu2_Intercept        9.62     66.0   -129.     165.    
 2 theta2_Intercept     4.05      2.02    -8.91    -0.897 
 3 phi1_Intercept       3.95      0.206    3.54     4.36  
 4 zi1_Intercept        3.58      0.733   -5.37    -2.49  
 5 mu1_Intercept        1.87      5.04    -5.03    12.6   
 6 zi2_Intercept        0.628     1.91    -3.11     4.99  
 7 phi2_Intercept       0.469     3.05    -5.21     6.74  
 8 theta2_sev23         0.442     0.779   -2.29     0.793 
 9 mu1_sev23            0.305     0.319   -0.0223   0.956 
10 mu1_pruning4Mcane    0.173     0.164   -0.499    0.0135
# … with 38 more rows
# ℹ Use `print(n = ...)` to see more rows
…
